…
```r
#Topics for each document - gamma
corpus_documents <- corpus_lda %>%
  tidy(matrix = "gamma")

corpus_documents
```

```
## # A tibble: 28 x 3
##    document topic   gamma
##    <chr>    <int>   <dbl>
##  1 1            1 0.0138 
##  2 2            1 0.00157
##  3 3            1 0.0559 
##  4 4            1 0.739  
##  5 5            1 0.00710
##  6 6            1 0.00385
##  7 7            1 0.00918
##  8 1            2 0.983  
##  9 2            2 0.0896 
## 10 3            2 0.238  
## # ... with 18 more rows
```
…
